Detect Periods of Sleep and Non-Wear from ActiGraph Data • actigraph.sleepr
…
Since the data is stored in a tibble, we can use the dplyr verbs (mutate, select, filter, summarise, group_by, arrange) to manipulate the data. For example, let’s compute the vector magnitude of the three-axis counts (axis1 - vertical, axis2 - horizontal, axis3 - lateral).

suppressMessages(library("dplyr"))
agdb_10s <- agdb_10s %>% select(timestamp, starts_with("axis"))
agdb_10s %>%
  mutate(magnitude = sqrt(axis1^2 + axis2^2 + axis3^2))
#> # A tibble: 8,999 x 5
#>    timestamp           axis1 axis2 axis3 magnitude
#>    <dttm>              <int> <int> <int>     <dbl>
#>  1 2012-06-27 10:54:00   377   397   413      686.
#>  2 2012-06-27 10:54:10   465   816  1225     1544.
#>  3 2012-06-27 10:54:20   505   444   713      980.
#>  4 2012-06-27 10:54:30    73    91   106      158.
#>  5 2012-06-27 10:54:40    45    43   115      131.
#>  6 2012-06-27 10:54:50     0     0     0        0 
#>  7 2012-06-27 10:55:00     0     0     0        0 
#>  8 2012-06-27 10:55:10   207   218   270      404.
#>  9 2012-06-27 10:55:20     0     0     0        0 
#> 10 2012-06-27 10:55:30     0     0     0        0 
#> # … with 8,989 more rows

Reintegrate from 10s to 60s epochs

The Sadeh and Cole-Kripke algorithms for converting activity measurements into asleep/awake indicators were developed for 60s epochs. If the data is in smaller epochs, we need to collapse or aggregate the epochs. The example data is in 10s epochs. So we aggregate the epochs from 10s to 60s by adding the counts for the six consecutive 10s epochs that fall into the same 60s epoch.

# Collapse epochs from 10 sec to 60 sec by summing
agdb_60s <- agdb_10s %>% collapse_epochs(60)
agdb_60s
#> # A tibble: 1,500 x 4
#>    timestamp           axis1 axis2 axis3
#>    <dttm>              <int> <int> <int>
#>  1 2012-06-27 10:54:00  1465  1791  2572
#>  2 2012-06-27 10:55:00   207   218   270
#>  3 2012-06-27 10:56:00   169   257   270
#>  4 2012-06-27 10:57:00     0     0     0
#>  5 2012-06-27 10:58:00   157   174   248
#>  6 2012-06-27 10:59:00    23    23   279
#>  7 2012-06-27 11:00:00     0     0     0
#>  8 2012-06-27 11:01:00     0     0     0
#>  9 2012-06-27 11:02:00     0     0     0
#> 10 2012-06-27 11:03:00     0     0     0
#> # … with 1,490 more rows

Sleep scoring with the Sadeh algorithm

The Sadeh algorithm is primarily used for younger adolescents as the supporting research was performed on children and young adults. It takes 60s epochs and uses an 11-minute window that includes the five previous and five future epochs. The apply_sadeh function implements the algorithm as described in the ActiGraph user manual.

agdb_60s %>% apply_sadeh()
#> # A tibble: 1,500 x 6
#>    timestamp           axis1 axis2 axis3 count sleep
#>    <dttm>              <int> <int> <int> <dbl> <chr>
#>  1 2012-06-27 10:54:00  1465  1791  2572   300 W    
#>  2 2012-06-27 10:55:00   207   218   270   207 W    
#>  3 2012-06-27 10:56:00   169   257   270   169 W    
#>  4 2012-06-27 10:57:00     0     0     0     0 W    
#>  5 2012-06-27 10:58:00   157   174   248   157 W    
#>  6 2012-06-27 10:59:00    23    23   279    23 W    
#>  7 2012-06-27 11:00:00     0     0     0     0 S    
#>  8 2012-06-27 11:01:00     0     0     0     0 S    
#>  9 2012-06-27 11:02:00     0     0     0     0 S    
#> 10 2012-06-27 11:03:00     0     0     0     0 S    
#> # … with 1,490 more rows

Sleep scoring with the Cole-Kripke algorithm

The Cole-Kripke algorithm is primarily used for adult populations as the supporting research was performed on subjects ranging from 35 to 65 years of age. Like the Sadeh algorithm, it takes 60s epochs and uses a 7-minute window that includes the four previous and two future epochs. The apply_cole function implements the algorithm as described in the ActiGraph user manual.

agdb_60s %>% apply_cole_kripke()
#> # A tibble: 1,500 x 6
#>    timestamp           axis1 axis2 axis3 count sleep
#>    <dttm>              <int> <int> <int> <dbl> <chr>
#>  1 2012-06-27 10:54:00  1465  1791  2572 14.6  W    
#>  2 2012-06-27 10:55:00   207   218   270  2.07 W    
#>  3 2012-06-27 10:56:00   169   257   270  1.69 W    
#>  4 2012-06-27 10:57:00     0     0     0  0    W    
#>  5 2012-06-27 10:58:00   157   174   248  1.57 W    
#>  6 2012-06-27 10:59:00    23    23   279  0.23 S    
#>  7 2012-06-27 11:00:00     0     0     0  0    S    
#>  8 2012-06-27 11:01:00     0     0     0  0    S    
#>  9 2012-06-27 11:02:00     0     0     0  0    S    
#> 10 2012-06-27 11:03:00     0     0     0  0    S    
#> # … with 1,490 more rows
…
