Apply the Sadeh algorithm — apply_sadeh • actigraph.sleepr
…
    See also

    collapse_epochs,
apply_cole_kripke, apply_tudor_locke

    Examples

library("dplyr")
data("gtxplus1day")

gtxplus1day %>%
  collapse_epochs(60) %>%
  apply_sadeh()
#> # A tibble: 1,500 x 6
#>    timestamp           axis1 axis2 axis3 count sleep
#>    <dttm>              <int> <int> <int> <dbl> <chr>
#>  1 2012-06-27 10:54:00  1465  1791  2572   300 W    
#>  2 2012-06-27 10:55:00   207   218   270   207 W    
#>  3 2012-06-27 10:56:00   169   257   270   169 W    
#>  4 2012-06-27 10:57:00     0     0     0     0 W    
#>  5 2012-06-27 10:58:00   157   174   248   157 W    
#>  6 2012-06-27 10:59:00    23    23   279    23 W    
#>  7 2012-06-27 11:00:00     0     0     0     0 S    
#>  8 2012-06-27 11:01:00     0     0     0     0 S    
#>  9 2012-06-27 11:02:00     0     0     0     0 S    
#> 10 2012-06-27 11:03:00     0     0     0     0 S    
#> # … with 1,490 more rows
…
