Re-integrate epochs — collapse_epochs • actigraph.sleepr
…
    References

    ActiLife 6 User's Manual by the
ActiGraph Software Department. 04/03/2012.

    Examples

library("dplyr")
data("gtxplus1day")

gtxplus1day %>%
  collapse_epochs(60)
#> # A tibble: 1,500 x 4
#>    timestamp           axis1 axis2 axis3
#>    <dttm>              <int> <int> <int>
#>  1 2012-06-27 10:54:00  1465  1791  2572
#>  2 2012-06-27 10:55:00   207   218   270
#>  3 2012-06-27 10:56:00   169   257   270
#>  4 2012-06-27 10:57:00     0     0     0
#>  5 2012-06-27 10:58:00   157   174   248
#>  6 2012-06-27 10:59:00    23    23   279
#>  7 2012-06-27 11:00:00     0     0     0
#>  8 2012-06-27 11:01:00     0     0     0
#>  9 2012-06-27 11:02:00     0     0     0
#> 10 2012-06-27 11:03:00     0     0     0
#> # … with 1,490 more rows
…
