Impute missing count values — impute_epochs • actigraph.sleepr
…
    See also

    na.spline, na.trim

    Examples

library("dplyr")
data("gtxplus1day")

gtxplus1day$axis1[5:10] <- NA
gtxplus1day %>%
  impute_epochs(axis1)
#> # A tibble: 8,999 x 4
#>    timestamp           axis1 axis2 axis3
#>    <dttm>              <dbl> <int> <int>
#>  1 2012-06-27 10:54:00   377   397   413
#>  2 2012-06-27 10:54:10   465   816  1225
#>  3 2012-06-27 10:54:20   505   444   713
#>  4 2012-06-27 10:54:30    73    91   106
#>  5 2012-06-27 10:54:40     0    43   115
#>  6 2012-06-27 10:54:50     0     0     0
#>  7 2012-06-27 10:55:00     0     0     0
#>  8 2012-06-27 10:55:10     0   218   270
#>  9 2012-06-27 10:55:20     0     0     0
#> 10 2012-06-27 10:55:30     0     0     0
#> # … with 8,989 more rows
…
