Non-wear detection from ActiGraph data • actigraph.sleepr
…
      Source: vignettes/detect-nonwear.Rmd
      detect-nonwear.Rmd

The actigraph.sleepr package implements two non-wear detection algorithms: Troiano (Troiano et al. 2008) and Choi (Choi et al. 2011). For illustration let’s use one day of sample data recorded by a GT3X+ monitor. See the sleep vignette for details on reading AGD files and collapsing epochs.

file_10s <- system.file("extdata", "ActiSleepPlus-RawData-Day01.agd",
  package = "actigraph.sleepr"
)
agdb_60s <- read_agd(file_10s) %>%
  collapse_epochs(60) %>%
  mutate(date = lubridate::as_date(timestamp)) %>%
  select(date, timestamp, starts_with("axis")) %>%
  group_by(date)
agdb_60s
#> # A tibble: 1,440 x 5
#> # Groups:   date [2]
#>    date       timestamp           axis1 axis2 axis3
#>    <date>     <dttm>              <int> <int> <int>
#>  1 2012-04-04 2012-04-04 13:29:00   600  1025   891
#>  2 2012-04-04 2012-04-04 13:30:00    88   367    74
#>  3 2012-04-04 2012-04-04 13:31:00   493   646   622
#>  4 2012-04-04 2012-04-04 13:32:00   358   284   174
#>  5 2012-04-04 2012-04-04 13:33:00   290   341    77
#>  6 2012-04-04 2012-04-04 13:34:00    57   166    23
#>  7 2012-04-04 2012-04-04 13:35:00   158   240    40
#>  8 2012-04-04 2012-04-04 13:36:00    68   214   102
#>  9 2012-04-04 2012-04-04 13:37:00  1500  1562  1252
#> 10 2012-04-04 2012-04-04 13:38:00   165   296    59
#> # … with 1,430 more rows
…
# Label each epoch with the period_id of the wear period it falls in
# or with NA if the epoch falls outside a wear period
agdb_wear <- combine_epochs_periods(
  agdb_60s, periods_wear,
  period_start, period_end
)
agdb_wear
#> # A tibble: 1,440 x 6
#> # Groups:   date [2]
#>    date       timestamp           axis1 axis2 axis3 period_id
#>    <date>     <dttm>              <int> <int> <int>     <int>
#>  1 2012-04-04 2012-04-04 13:29:00   600  1025   891         1
#>  2 2012-04-04 2012-04-04 13:30:00    88   367    74         1
#>  3 2012-04-04 2012-04-04 13:31:00   493   646   622         1
#>  4 2012-04-04 2012-04-04 13:32:00   358   284   174         1
#>  5 2012-04-04 2012-04-04 13:33:00   290   341    77         1
#>  6 2012-04-04 2012-04-04 13:34:00    57   166    23         1
#>  7 2012-04-04 2012-04-04 13:35:00   158   240    40         1
#>  8 2012-04-04 2012-04-04 13:36:00    68   214   102         1
#>  9 2012-04-04 2012-04-04 13:37:00  1500  1562  1252         1
#> 10 2012-04-04 2012-04-04 13:38:00   165   296    59         1
#> # … with 1,430 more rows
…
