Sleep detection from ActiGraph data • actigraph.sleepr
…
Since the data is stored in a tibble, we can use the dplyr verbs (mutate, select, filter, summarise, group_by, arrange) to manipulate the data. For example, let’s compute the magnitude of the three-axis counts (axis1 - vertical, axis2 - horizontal, axis3 - lateral).

agdb_10s <- agdb_10s %>%
  select(timestamp, starts_with("axis")) %>%
  mutate(magnitude = sqrt(axis1^2 + axis2^2 + axis3^2))
agdb_10s
#> # A tibble: 8,999 x 5
#>    timestamp           axis1 axis2 axis3 magnitude
#>    <dttm>              <int> <int> <int>     <dbl>
#>  1 2012-06-27 10:54:00   377   397   413      686.
#>  2 2012-06-27 10:54:10   465   816  1225     1544.
#>  3 2012-06-27 10:54:20   505   444   713      980.
#>  4 2012-06-27 10:54:30    73    91   106      158.
#>  5 2012-06-27 10:54:40    45    43   115      131.
#>  6 2012-06-27 10:54:50     0     0     0        0 
#>  7 2012-06-27 10:55:00     0     0     0        0 
#>  8 2012-06-27 10:55:10   207   218   270      404.
#>  9 2012-06-27 10:55:20     0     0     0        0 
#> 10 2012-06-27 10:55:30     0     0     0        0 
#> # … with 8,989 more rows
…
So we aggregate the epochs from 10s to 60s by adding the counts for the six consecutive 10s epochs that fall into the same 60s epoch.

# Collapse epochs from 10 sec to 60 sec by summing counts
agdb_60s <- agdb_10s %>% collapse_epochs(60)
agdb_60s
#> # A tibble: 1,500 x 4
#>    timestamp           axis1 axis2 axis3
#>    <dttm>              <int> <int> <int>
#>  1 2012-06-27 10:54:00  1465  1791  2572
#>  2 2012-06-27 10:55:00   207   218   270
#>  3 2012-06-27 10:56:00   169   257   270
#>  4 2012-06-27 10:57:00     0     0     0
#>  5 2012-06-27 10:58:00   157   174   248
#>  6 2012-06-27 10:59:00    23    23   279
#>  7 2012-06-27 11:00:00     0     0     0
#>  8 2012-06-27 11:01:00     0     0     0
#>  9 2012-06-27 11:02:00     0     0     0
#> 10 2012-06-27 11:03:00     0     0     0
#> # … with 1,490 more rows
…
Process a batch of AGD files

With a few lines of code, we can load each AGD file in a directory, collapse from 10s to 60s and save the integrated activity data.

library("purrr")

# Construct a path to the directory which contains the raw AGD files
path <- system.file("extdata", package = "actigraph.sleepr")

list.files(path, pattern = "*.agd", full.names  = TRUE)  %>%
  map_dfr(
    ~ read_agd(.) %>% collapse_epochs(60),
    .id = ".filename"
  )
#> # A tibble: 2,940 x 10
#>    .filename timestamp           axis1 axis2 axis3 steps inclineoff
#>    <chr>     <dttm>              <int> <int> <int> <int>      <int>
#>  1 1         2012-04-04 13:29:00   600  1025   891     5          0
#>  2 1         2012-04-04 13:30:00    88   367    74     2         33
#>  3 1         2012-04-04 13:31:00   493   646   622     4         33
#>  4 1         2012-04-04 13:32:00   358   284   174     1         14
#>  5 1         2012-04-04 13:33:00   290   341    77     5         30
#>  6 1         2012-04-04 13:34:00    57   166    23     6         32
#>  7 1         2012-04-04 13:35:00   158   240    40     9         46
#>  8 1         2012-04-04 13:36:00    68   214   102     2         41
#>  9 1         2012-04-04 13:37:00  1500  1562  1252    12         11
#> 10 1         2012-04-04 13:38:00   165   296    59     4          4
#> # … with 2,930 more rows, and 3 more variables: inclinestanding <int>,
#> #   inclinesitting <int>, inclinelying <int>
…
Let’s combine the epochs and the awake periods. Then we can easily slice the time series by sleep/non-sleep periods.

# Let's label the epochs with a `period_id`, which indicates the awake period
# that each epoch falls in. The ids are consecutive integers starting from 1.
# If the epoch is outside an awake period, then `period_id` is NA.
agdb_awake <- combine_epochs_periods(
  agdb_sadeh, periods_awake,
  period_start, period_end
)
agdb_awake
#> # A tibble: 1,500 x 7
#>    timestamp           axis1 axis2 axis3 count sleep period_id
#>    <dttm>              <int> <int> <int> <dbl> <chr>     <int>
#>  1 2012-06-27 10:54:00  1465  1791  2572   300 W             1
#>  2 2012-06-27 10:55:00   207   218   270   207 W             1
#>  3 2012-06-27 10:56:00   169   257   270   169 W             1
#>  4 2012-06-27 10:57:00     0     0     0     0 W             1
#>  5 2012-06-27 10:58:00   157   174   248   157 W             1
#>  6 2012-06-27 10:59:00    23    23   279    23 W             1
#>  7 2012-06-27 11:00:00     0     0     0     0 S             1
#>  8 2012-06-27 11:01:00     0     0     0     0 S             1
#>  9 2012-06-27 11:02:00     0     0     0     0 S             1
#> 10 2012-06-27 11:03:00     0     0     0     0 S             1
#> # … with 1,490 more rows
…
